com\avakulenko\telephoneCenter\service\ServService.class
com\avakulenko\telephoneCenter\service\Impl\ServServiceImpl.class
com\avakulenko\telephoneCenter\dao\SubscriberDAO.class
com\avakulenko\telephoneCenter\service\AccountService.class
com\avakulenko\telephoneCenter\service\Impl\AuthServiceImpl.class
com\avakulenko\telephoneCenter\controller\SubscriberController.class
com\avakulenko\telephoneCenter\dao\AccountDAO.class
com\avakulenko\telephoneCenter\dao\Impl\AccountDAOImpl.class
com\avakulenko\telephoneCenter\domain\User.class
com\avakulenko\telephoneCenter\service\SubscriberService.class
com\avakulenko\telephoneCenter\controller\AccountController.class
com\avakulenko\telephoneCenter\domain\Serv.class
com\avakulenko\telephoneCenter\domain\Account.class
com\avakulenko\telephoneCenter\dto\AuthResponse.class
com\avakulenko\telephoneCenter\dao\ServDAO.class
com\avakulenko\telephoneCenter\controller\ServController.class
com\avakulenko\telephoneCenter\dao\Impl\AccountDAOImpl$1.class
com\avakulenko\telephoneCenter\service\AuthService.class
com\avakulenko\telephoneCenter\dao\Impl\ServDAOImpl$1.class
com\avakulenko\telephoneCenter\domain\Administrator.class
com\avakulenko\telephoneCenter\domain\Subscriber.class
com\avakulenko\telephoneCenter\dto\LoginDTO.class
com\avakulenko\telephoneCenter\dao\AdministratorDAO.class
com\avakulenko\telephoneCenter\dao\Impl\ServDAOImpl.class
com\avakulenko\telephoneCenter\filter\SecurityInterceptor.class
com\avakulenko\telephoneCenter\service\Impl\SubscriberServiceImpl.class
com\avakulenko\telephoneCenter\controller\AuthController.class
com\avakulenko\telephoneCenter\dao\Impl\SubscriberDAOImpl.class
com\avakulenko\telephoneCenter\dao\Impl\SubscriberDAOImpl$1.class
